{
    "App": {
        "port": 3000,
        "loginUrl": "login",
        "database": {
            "mongoUrl": "mongodb+srv://CandidateChatbotUser:Password1@cluster0.uwc1k.mongodb.net/test"
        },
        "dialogflow": {
            "DF_SERVICE_ACCOUNT_PATH": "chatbotagent-ywbx-75ee71aff620.json",
            "DF_PROJECT_ID": "chatbotagent-ywbx"
        },
        "auth": {
            "key": "authSecretKey",
            "tokenExpiresIn": "20000000"
        }
    }
}